{
	"info": {
		"_postman_id": "683b7779-034c-46d6-a950-0b5f7c8e493a",
		"name": "blocksi",
		"schema": "https://schema.getpostman.com/json/collection/v2.1.0/collection.json"
	},
	"item": [
		{
			"name": "localhost:8080/",
			"protocolProfileBehavior": {
				"disableBodyPruning": true
			},
			"request": {
				"method": "GET",
				"header": [],
				"body": {
					"mode": "raw",
					"raw": ""
				},
				"url": {
					"raw": "localhost:8080/",
					"host": [
						"localhost"
					],
					"port": "8080",
					"path": [
						""
					]
				}
			},
			"response": [
				{
					"name": "localhost:8080/",
					"originalRequest": {
						"method": "GET",
						"header": [],
						"body": {
							"mode": "raw",
							"raw": ""
						},
						"url": {
							"raw": "localhost:8080/",
							"host": [
								"localhost"
							],
							"port": "8080",
							"path": [
								""
							]
						}
					},
					"status": "OK",
					"code": 200,
					"_postman_previewlanguage": "json",
					"header": [
						{
							"key": "Access-Control-Allow-Headers",
							"value": "Accept, Content-Type, Content-Length, Accept-Encoding, X-CSRF-Token, Authorization, Access-Control-Request-Headers, Access-Control-Request-Method, Connection, Host, Origin, User-Agent, Referer, Cache-Control, X-header"
						},
						{
							"key": "Access-Control-Allow-Methods",
							"value": "POST, GET, OPTIONS, PUT, DELETE"
						},
						{
							"key": "Access-Control-Allow-Origin",
							"value": "*"
						},
						{
							"key": "Content-Type",
							"value": "application/json"
						},
						{
							"key": "Date",
							"value": "Thu, 13 Jan 2022 12:33:35 GMT"
						},
						{
							"key": "Content-Length",
							"value": "14"
						}
					],
					"cookie": [],
					"body": "API is working"
				}
			]
		},
		{
			"name": "localhost:8080/register",
			"request": {
				"method": "POST",
				"header": [],
				"body": {
					"mode": "raw",
					"raw": "{\r\n    \"username\": \"ayush_2\",\r\n    \"password\": \"ayush\"\r\n}"
				},
				"url": {
					"raw": "localhost:8080/register",
					"host": [
						"localhost"
					],
					"port": "8080",
					"path": [
						"register"
					]
				}
			},
			"response": [
				{
					"name": "localhost:8080/register",
					"originalRequest": {
						"method": "POST",
						"header": [],
						"body": {
							"mode": "raw",
							"raw": "{\r\n    \"username\": \"ayush_2\",\r\n    \"password\": \"ayush\"\r\n}"
						},
						"url": {
							"raw": "localhost:8080/register",
							"host": [
								"localhost"
							],
							"port": "8080",
							"path": [
								"register"
							]
						}
					},
					"status": "OK",
					"code": 200,
					"_postman_previewlanguage": "json",
					"header": [
						{
							"key": "Access-Control-Allow-Headers",
							"value": "Accept, Content-Type, Content-Length, Accept-Encoding, X-CSRF-Token, Authorization, Access-Control-Request-Headers, Access-Control-Request-Method, Connection, Host, Origin, User-Agent, Referer, Cache-Control, X-header"
						},
						{
							"key": "Access-Control-Allow-Methods",
							"value": "POST, GET, OPTIONS, PUT, DELETE"
						},
						{
							"key": "Access-Control-Allow-Origin",
							"value": "*"
						},
						{
							"key": "Content-Type",
							"value": "application/json"
						},
						{
							"key": "Date",
							"value": "Thu, 13 Jan 2022 12:33:51 GMT"
						},
						{
							"key": "Content-Length",
							"value": "14"
						}
					],
					"cookie": [],
					"body": "API is working"
				}
			]
		},
		{
			"name": "localhost:8080/login SUCCESS",
			"request": {
				"method": "POST",
				"header": [],
				"body": {
					"mode": "raw",
					"raw": "{\r\n    \"username\": \"ayush\",\r\n    \"password\": \"ayush\"\r\n}"
				},
				"url": {
					"raw": "localhost:8080/login",
					"host": [
						"localhost"
					],
					"port": "8080",
					"path": [
						"login"
					]
				}
			},
			"response": [
				{
					"name": "localhost:8080/login",
					"originalRequest": {
						"method": "POST",
						"header": [],
						"body": {
							"mode": "raw",
							"raw": "{\r\n    \"username\": \"ayush\",\r\n    \"password\": \"ayush\"\r\n}"
						},
						"url": {
							"raw": "localhost:8080/login",
							"host": [
								"localhost"
							],
							"port": "8080",
							"path": [
								"login"
							]
						}
					},
					"status": "OK",
					"code": 200,
					"_postman_previewlanguage": "json",
					"header": [
						{
							"key": "Access-Control-Allow-Headers",
							"value": "Accept, Content-Type, Content-Length, Accept-Encoding, X-CSRF-Token, Authorization, Access-Control-Request-Headers, Access-Control-Request-Method, Connection, Host, Origin, User-Agent, Referer, Cache-Control, X-header"
						},
						{
							"key": "Access-Control-Allow-Methods",
							"value": "POST, GET, OPTIONS, PUT, DELETE"
						},
						{
							"key": "Access-Control-Allow-Origin",
							"value": "*"
						},
						{
							"key": "Content-Type",
							"value": "application/json"
						},
						{
							"key": "Date",
							"value": "Thu, 13 Jan 2022 12:34:01 GMT"
						},
						{
							"key": "Content-Length",
							"value": "405"
						}
					],
					"cookie": [],
					"body": "{\n    \"message\": \"logged in\",\n    \"status\": false,\n    \"token\": \"eyJhbGciOiJIUzI1NiIsInR5cCI6IkpXVCJ9.eyJVc2VySUQiOjAsIlVzZXJuYW1lIjoiYXl1c2giLCJleHAiOjE2NDgwNzcyNDB9.7hc_LsTI5G-38y0XNN87SStAQ7DfDp30L2N-WOALNs4\",\n    \"user\": {\n        \"ID\": 1,\n        \"CreatedAt\": \"2022-01-12T23:40:49.057909Z\",\n        \"UpdatedAt\": \"2022-01-12T23:40:49.057909Z\",\n        \"DeletedAt\": null,\n        \"username\": \"ayush\",\n        \"password\": \"$2a$10$S6jyEWB49CaGCnBhb9SakuTS8pXdHf3h4S07M714HEJEOS2GIhEHy\"\n    }\n}"
				}
			]
		},
		{
			"name": "localhost:8080/login OPTIONS",
			"request": {
				"method": "OPTIONS",
				"header": [],
				"body": {
					"mode": "raw",
					"raw": ""
				},
				"url": {
					"raw": "localhost:8080/login",
					"host": [
						"localhost"
					],
					"port": "8080",
					"path": [
						"login"
					]
				}
			},
			"response": []
		},
		{
			"name": "localhost:8080/auth/create/contact",
			"request": {
				"method": "POST",
				"header": [
					{
						"key": "x-access-token",
						"value": "eyJhbGciOiJIUzI1NiIsInR5cCI6IkpXVCJ9.eyJVc2VySUQiOjAsIlVzZXJuYW1lIjoiYXl1c2giLCJleHAiOjE2NDc5MTg4OTF9.Oe1c3M75HMGXrqKcizIZ0y0fYtW6wLexuqm4yLTA9mg",
						"description": "Auth Token",
						"type": "text"
					},
					{
						"key": "",
						"value": "",
						"type": "text",
						"disabled": true
					}
				],
				"body": {
					"mode": "raw",
					"raw": "{\r\n    \"username\": \"ayush\",\r\n    \"contactId\": 45,\r\n    \"contactNumber\": \"069665916\",\r\n    \"contactName\": \"Ayush Pandey\"\r\n}"
				},
				"url": {
					"raw": "localhost:8080/auth/create/contact",
					"host": [
						"localhost"
					],
					"port": "8080",
					"path": [
						"auth",
						"create",
						"contact"
					]
				}
			},
			"response": [
				{
					"name": "localhost:8080/auth/create/contact",
					"originalRequest": {
						"method": "POST",
						"header": [
							{
								"key": "x-access-token",
								"value": "eyJhbGciOiJIUzI1NiIsInR5cCI6IkpXVCJ9.eyJVc2VySUQiOjAsIlVzZXJuYW1lIjoiYXl1c2giLCJleHAiOjE2NDc5MTg4OTF9.Oe1c3M75HMGXrqKcizIZ0y0fYtW6wLexuqm4yLTA9mg",
								"description": "Auth Token",
								"type": "text"
							},
							{
								"key": "",
								"value": "",
								"type": "text",
								"disabled": true
							}
						],
						"body": {
							"mode": "raw",
							"raw": "{\r\n    \"username\": \"ayush\",\r\n    \"contactId\": 45,\r\n    \"contactNumber\": \"069665916\",\r\n    \"contactName\": \"Ayush Pandey\"\r\n}"
						},
						"url": {
							"raw": "localhost:8080/auth/create/contact",
							"host": [
								"localhost"
							],
							"port": "8080",
							"path": [
								"auth",
								"create",
								"contact"
							]
						}
					},
					"status": "OK",
					"code": 200,
					"_postman_previewlanguage": "json",
					"header": [
						{
							"key": "Access-Control-Allow-Headers",
							"value": "Accept, Content-Type, Content-Length, Accept-Encoding, X-CSRF-Token, Authorization, Access-Control-Request-Headers, Access-Control-Request-Method, Connection, Host, Origin, User-Agent, Referer, Cache-Control, X-header"
						},
						{
							"key": "Access-Control-Allow-Methods",
							"value": "POST, GET, OPTIONS, PUT, DELETE"
						},
						{
							"key": "Access-Control-Allow-Origin",
							"value": "*"
						},
						{
							"key": "Content-Type",
							"value": "application/json"
						},
						{
							"key": "Date",
							"value": "Thu, 13 Jan 2022 12:34:56 GMT"
						},
						{
							"key": "Content-Length",
							"value": "240"
						}
					],
					"cookie": [],
					"body": "{\n    \"Value\": {\n        \"ID\": 36,\n        \"CreatedAt\": \"2022-01-13T12:34:56.10361Z\",\n        \"UpdatedAt\": \"2022-01-13T12:34:56.10361Z\",\n        \"DeletedAt\": null,\n        \"username\": \"ayush\",\n        \"contactId\": 45,\n        \"contactNumber\": \"069665916\",\n        \"contactName\": \"Ayush Pandey\"\n    },\n    \"Error\": null,\n    \"RowsAffected\": 1\n}"
				}
			]
		},
		{
			"name": "localhost:8080/auth/contacts",
			"request": {
				"method": "GET",
				"header": [
					{
						"key": "x-access-token",
						"value": "eyJhbGciOiJIUzI1NiIsInR5cCI6IkpXVCJ9.eyJVc2VySUQiOjAsIlVzZXJuYW1lIjoiYXl1c2giLCJleHAiOjE2MDI2NDg3MzF9.ngdZIufldw2b-zAkg9ZSSairQ7K1A7YDYW1EZuAnuRM",
						"description": "Auth Token",
						"type": "text"
					}
				],
				"url": {
					"raw": "localhost:8080/auth/contacts",
					"host": [
						"localhost"
					],
					"port": "8080",
					"path": [
						"auth",
						"contacts"
					],
					"query": [
						{
							"key": "id",
							"value": "3",
							"disabled": true
						}
					]
				}
			},
			"response": [
				{
					"name": "localhost:8080/auth/contacts",
					"originalRequest": {
						"method": "GET",
						"header": [
							{
								"key": "x-access-token",
								"value": "{{x-access-token}}",
								"description": "Auth Token",
								"type": "text"
							}
						],
						"url": {
							"raw": "localhost:8080/auth/contacts",
							"host": [
								"localhost"
							],
							"port": "8080",
							"path": [
								"auth",
								"contacts"
							],
							"query": [
								{
									"key": "id",
									"value": "3",
									"disabled": true
								}
							]
						}
					},
					"status": "OK",
					"code": 200,
					"_postman_previewlanguage": "json",
					"header": [
						{
							"key": "Access-Control-Allow-Headers",
							"value": "Accept, Content-Type, Content-Length, Accept-Encoding, X-CSRF-Token, Authorization, Access-Control-Request-Headers, Access-Control-Request-Method, Connection, Host, Origin, User-Agent, Referer, Cache-Control, X-header"
						},
						{
							"key": "Access-Control-Allow-Methods",
							"value": "POST, GET, OPTIONS, PUT, DELETE"
						},
						{
							"key": "Access-Control-Allow-Origin",
							"value": "*"
						},
						{
							"key": "Content-Type",
							"value": "application/json"
						},
						{
							"key": "Date",
							"value": "Thu, 13 Jan 2022 12:35:15 GMT"
						},
						{
							"key": "Content-Length",
							"value": "403"
						}
					],
					"cookie": [],
					"body": "[\n    {\n        \"ID\": 1,\n        \"CreatedAt\": \"2022-01-12T23:40:57.653339Z\",\n        \"UpdatedAt\": \"2022-01-12T23:40:57.653339Z\",\n        \"DeletedAt\": null,\n        \"username\": \"ayush\",\n        \"contactId\": 44,\n        \"contactNumber\": \"069665916\",\n        \"contactName\": \"Ayush Pandey\"\n    },\n    {\n        \"ID\": 36,\n        \"CreatedAt\": \"2022-01-13T12:34:56.10361Z\",\n        \"UpdatedAt\": \"2022-01-13T12:34:56.10361Z\",\n        \"DeletedAt\": null,\n        \"username\": \"ayush\",\n        \"contactId\": 45,\n        \"contactNumber\": \"069665916\",\n        \"contactName\": \"Ayush Pandey\"\n    }\n]"
				}
			]
		},
		{
			"name": "localhost:8080/auth/contacts/1",
			"request": {
				"method": "GET",
				"header": [
					{
						"key": "x-access-token",
						"value": "eyJhbGciOiJIUzI1NiIsInR5cCI6IkpXVCJ9.eyJVc2VySUQiOjAsIlVzZXJuYW1lIjoiYXl1c2giLCJleHAiOjE2MDI2NDg3MzF9.ngdZIufldw2b-zAkg9ZSSairQ7K1A7YDYW1EZuAnuRM",
						"type": "text"
					}
				],
				"url": {
					"raw": "localhost:8080/auth/contacts/3",
					"host": [
						"localhost"
					],
					"port": "8080",
					"path": [
						"auth",
						"contacts",
						"3"
					]
				}
			},
			"response": [
				{
					"name": "localhost:8080/auth/contacts/3",
					"originalRequest": {
						"method": "GET",
						"header": [
							{
								"key": "x-access-token",
								"value": "{{x-access-token}}",
								"type": "text"
							}
						],
						"url": {
							"raw": "localhost:8080/auth/contacts/1",
							"host": [
								"localhost"
							],
							"port": "8080",
							"path": [
								"auth",
								"contacts",
								"1"
							]
						}
					},
					"status": "OK",
					"code": 200,
					"_postman_previewlanguage": "json",
					"header": [
						{
							"key": "Access-Control-Allow-Headers",
							"value": "Accept, Content-Type, Content-Length, Accept-Encoding, X-CSRF-Token, Authorization, Access-Control-Request-Headers, Access-Control-Request-Method, Connection, Host, Origin, User-Agent, Referer, Cache-Control, X-header"
						},
						{
							"key": "Access-Control-Allow-Methods",
							"value": "POST, GET, OPTIONS, PUT, DELETE"
						},
						{
							"key": "Access-Control-Allow-Origin",
							"value": "*"
						},
						{
							"key": "Content-Type",
							"value": "application/json"
						},
						{
							"key": "Date",
							"value": "Thu, 13 Jan 2022 12:35:39 GMT"
						},
						{
							"key": "Content-Length",
							"value": "201"
						}
					],
					"cookie": [],
					"body": "{\n    \"ID\": 1,\n    \"CreatedAt\": \"2022-01-12T23:40:57.653339Z\",\n    \"UpdatedAt\": \"2022-01-12T23:40:57.653339Z\",\n    \"DeletedAt\": null,\n    \"username\": \"ayush\",\n    \"contactId\": 44,\n    \"contactNumber\": \"069665916\",\n    \"contactName\": \"Ayush Pandey\"\n}"
				}
			]
		},
		{
			"name": "localhost:8080/auth/contacts/3",
			"request": {
				"method": "PUT",
				"header": [
					{
						"key": "x-access-token",
						"value": "eyJhbGciOiJIUzI1NiIsInR5cCI6IkpXVCJ9.eyJVc2VySUQiOjAsIk5hbWUiOiIiLCJVc2VybmFtZSI6ImF5dXNoIiwiZXhwIjoxNjAyNjQ1NzAyfQ.qQQjxxO8fCJtLix2r9O3mIZt1rRRQ5LQQGu78Ai3zX8",
						"description": "auth",
						"type": "text"
					}
				],
				"body": {
					"mode": "raw",
					"raw": "{\r\n    \"contactName\": \"pandey\"\r\n}"
				},
				"url": {
					"raw": "localhost:8080/auth/contacts/3",
					"host": [
						"localhost"
					],
					"port": "8080",
					"path": [
						"auth",
						"contacts",
						"3"
					]
				}
			},
			"response": [
				{
					"name": "localhost:8080/auth/contacts/3",
					"originalRequest": {
						"method": "PUT",
						"header": [
							{
								"key": "x-access-token",
								"value": "{{x-access-token}}",
								"description": "auth",
								"type": "text"
							}
						],
						"body": {
							"mode": "raw",
							"raw": "{\r\n    \"contactName\": \"pandey\"\r\n}"
						},
						"url": {
							"raw": "localhost:8080/auth/contacts/3",
							"host": [
								"localhost"
							],
							"port": "8080",
							"path": [
								"auth",
								"contacts",
								"3"
							]
						}
					},
					"status": "OK",
					"code": 200,
					"_postman_previewlanguage": "json",
					"header": [
						{
							"key": "Access-Control-Allow-Headers",
							"value": "Accept, Content-Type, Content-Length, Accept-Encoding, X-CSRF-Token, Authorization, Access-Control-Request-Headers, Access-Control-Request-Method, Connection, Host, Origin, User-Agent, Referer, Cache-Control, X-header"
						},
						{
							"key": "Access-Control-Allow-Methods",
							"value": "POST, GET, OPTIONS, PUT, DELETE"
						},
						{
							"key": "Access-Control-Allow-Origin",
							"value": "*"
						},
						{
							"key": "Content-Type",
							"value": "application/json"
						},
						{
							"key": "Date",
							"value": "Thu, 13 Jan 2022 12:36:17 GMT"
						},
						{
							"key": "Content-Length",
							"value": "183"
						}
					],
					"cookie": [],
					"body": "{\n    \"ID\": 37,\n    \"CreatedAt\": \"2022-01-13T12:36:17.0516202Z\",\n    \"UpdatedAt\": \"2022-01-13T12:36:17.0516202Z\",\n    \"DeletedAt\": null,\n    \"username\": \"\",\n    \"contactId\": 0,\n    \"contactNumber\": \"\",\n    \"contactName\": \"pandey\"\n}"
				}
			]
		},
		{
			"name": "localhost:8080/auth/contacts/3",
			"request": {
				"method": "DELETE",
				"header": [
					{
						"key": "x-access-token",
						"value": "eyJhbGciOiJIUzI1NiIsInR5cCI6IkpXVCJ9.eyJVc2VySUQiOjAsIk5hbWUiOiIiLCJVc2VybmFtZSI6ImF5dXNoIiwiZXhwIjoxNjAyNjQ1NzAyfQ.qQQjxxO8fCJtLix2r9O3mIZt1rRRQ5LQQGu78Ai3zX8",
						"description": "Auth",
						"type": "text"
					}
				],
				"url": {
					"raw": "localhost:8080/auth/contacts/3",
					"host": [
						"localhost"
					],
					"port": "8080",
					"path": [
						"auth",
						"contacts",
						"3"
					]
				}
			},
			"response": []
		},
		{
			"name": "localhost:8080/login FAILED",
			"request": {
				"method": "POST",
				"header": [],
				"body": {
					"mode": "raw",
					"raw": "{\r\n    \"username\": \"dsvfdv\",\r\n    \"password\": \"ayush\"\r\n}"
				},
				"url": {
					"raw": "localhost:8080/login",
					"host": [
						"localhost"
					],
					"port": "8080",
					"path": [
						"login"
					]
				}
			},
			"response": [
				{
					"name": "localhost:8080/login FAILED",
					"originalRequest": {
						"method": "POST",
						"header": [],
						"body": {
							"mode": "raw",
							"raw": "{\r\n    \"username\": \"dsvfdv\",\r\n    \"password\": \"ayush\"\r\n}"
						},
						"url": {
							"raw": "localhost:8080/login",
							"host": [
								"localhost"
							],
							"port": "8080",
							"path": [
								"login"
							]
						}
					},
					"status": "OK",
					"code": 200,
					"_postman_previewlanguage": "json",
					"header": [
						{
							"key": "Access-Control-Allow-Headers",
							"value": "Accept, Content-Type, Content-Length, Accept-Encoding, X-CSRF-Token, Authorization, Access-Control-Request-Headers, Access-Control-Request-Method, Connection, Host, Origin, User-Agent, Referer, Cache-Control, X-header"
						},
						{
							"key": "Access-Control-Allow-Methods",
							"value": "POST, GET, OPTIONS, PUT, DELETE"
						},
						{
							"key": "Access-Control-Allow-Origin",
							"value": "*"
						},
						{
							"key": "Content-Type",
							"value": "application/json"
						},
						{
							"key": "Date",
							"value": "Thu, 13 Jan 2022 14:45:18 GMT"
						},
						{
							"key": "Content-Length",
							"value": "56"
						}
					],
					"cookie": [],
					"body": "{\n    \"message\": \"Username address not found\",\n    \"status\": false\n}"
				}
			]
		}
	],
	"variable": [
		{
			"key": "x-access-token",
			"value": "eyJhbGciOiJIUzI1NiIsInR5cCI6IkpXVCJ9.eyJVc2VySUQiOjAsIlVzZXJuYW1lIjoiYXl1c2giLCJleHAiOjE2NDc5MTg4OTF9.Oe1c3M75HMGXrqKcizIZ0y0fYtW6wLexuqm4yLTA9mg"
		}
	]
}